<?xml version="1.0" encoding="utf-8"?>
<!-- Generator: Adobe Illustrator 19.0.0, SVG Export Plug-In . SVG Version: 6.00 Build 0)  -->
<svg version="1.1" id="Слой_1" xmlns="http://www.w3.org/2000/svg" xmlns:xlink="http://www.w3.org/1999/xlink" x="0px" y="0px"
	 viewBox="0 0 595.3 841.9" style="enable-background:new 0 0 595.3 841.9;" xml:space="preserve">
<style type="text/css">
	.st0{fill:url(#XMLID_3_);}
</style>
<radialGradient id="XMLID_3_" cx="298" cy="298.5" r="181.3122" gradientUnits="userSpaceOnUse">
	<stop  offset="0.5184" style="stop-color:#E9ECED"/>
	<stop  offset="0.8011" style="stop-color:#EBEDEE;stop-opacity:0.413"/>
	<stop  offset="0.9028" style="stop-color:#F0F2F3;stop-opacity:0.2019"/>
	<stop  offset="0.9751" style="stop-color:#FAFBFB;stop-opacity:5.164874e-002"/>
	<stop  offset="1" style="stop-color:#FFFFFF;stop-opacity:0"/>
</radialGradient>
<ellipse id="XMLID_1_" class="st0" cx="298" cy="298.5" rx="186" ry="176.5"/>
</svg>
