<?xml version="1.0" encoding="utf-8"?>
<!-- Generator: Adobe Illustrator 19.0.0, SVG Export Plug-In . SVG Version: 6.00 Build 0)  -->
<svg version="1.1" id="Слой_1" xmlns="http://www.w3.org/2000/svg" xmlns:xlink="http://www.w3.org/1999/xlink" x="0px" y="0px"
	 viewBox="0 0 595.3 95.9" style="enable-background:new 0 0 595.3 95.9;" xml:space="preserve">
<style type="text/css">
	.st0{fill:url(#XMLID_42_);stroke:#000000;stroke-miterlimit:10;}
</style>
</svg>
