<svg xmlns="http://www.w3.org/2000/svg" viewBox="0 0 63 63" width="63" height="63">
	<style>
		tspan { white-space:pre }
		.shp0 { fill: #ff7600 } 
	</style>
	<path id="Forma 1" class="shp0" d="M11.64 34.92C11.64 38.29 12.86 41.7 15 44.28C17.25 47 20.19 48.49 23.28 48.49C26.36 48.49 29.3 47 31.54 44.28C33.67 41.71 34.9 38.3 34.9 34.92L34.9 34.91C34.9 34.37 34.46 33.94 33.93 33.94C33.39 33.94 32.96 34.37 32.96 34.91L32.96 34.92C32.96 37.85 31.9 40.81 30.05 43.05C28.18 45.31 25.77 46.55 23.28 46.55C20.78 46.55 18.37 45.31 16.5 43.05C14.64 40.81 13.57 37.84 13.57 34.92L13.57 33.76C13.57 31.36 15.18 28.1 15.79 26.95C19.68 26.51 23.43 26.67 26.95 27.45C27.02 27.46 27.09 27.47 27.16 27.47C27.6 27.47 28 27.16 28.1 26.71C28.22 26.19 27.89 25.67 27.36 25.55C23.51 24.7 19.4 24.54 15.14 25.08C14.82 25.09 14.52 25.26 14.35 25.56C14.29 25.67 13.44 27.14 12.71 29.02C12.38 27.23 12.08 25.21 12.08 23.84C12.08 20.45 14.22 18.94 16.35 18.94C16.42 18.94 16.49 18.93 16.55 18.91C16.62 18.93 16.69 18.94 16.76 18.94C16.96 18.94 17.17 18.87 17.34 18.74C19.47 17.12 22.31 17.34 25.06 17.8C25.58 17.89 26.08 17.54 26.17 17.01C26.26 16.48 25.91 15.98 25.38 15.89C22.45 15.39 19.11 15.15 16.44 17C16.41 17 16.38 17 16.35 17C14.51 17 12.88 17.73 11.75 19.07C10.71 20.3 10.14 22 10.14 23.84C10.14 26.87 11.43 32.46 11.64 33.35L11.64 34.92L11.64 34.92ZM39.96 50.64C39.94 50.63 39.92 50.62 39.9 50.62L34.13 49.41L32.61 47.1C32.6 47.09 32.59 47.07 32.58 47.06C32.3 46.69 31.88 46.44 31.42 46.39C30.96 46.33 30.49 46.47 30.14 46.76C30.13 46.76 30.12 46.77 30.12 46.77L23.26 52.67L16.41 46.77C16.41 46.77 16.4 46.76 16.39 46.76C16.04 46.47 15.57 46.33 15.11 46.39C14.65 46.44 14.23 46.69 13.95 47.06C13.94 47.07 13.93 47.09 13.92 47.1L12.39 49.41L6.63 50.62C6.61 50.62 6.59 50.63 6.57 50.64C4.89 51.1 3.47 52.14 2.44 53.64C1.51 55 1 56.65 1 58.28L1 60.1C1 61.7 2.42 63 4.17 63L21.06 63C21.06 63 21.06 63 21.06 63C21.06 63 21.06 63 21.07 63L25.46 63C25.46 63 25.47 63 25.47 63C25.47 63 25.47 63 25.47 63L42.36 63C44.11 63 45.53 61.7 45.53 60.1L45.53 58.28C45.53 56.65 45.02 55 44.08 53.64C43.06 52.14 41.64 51.1 39.96 50.64ZM31.16 48.43L32.37 50.25L27.55 56.87L24.69 54.01L31.16 48.43ZM22.63 59.13L23.9 59.13L24.29 61.06L22.24 61.06L22.63 59.13ZM24.23 56.66C24.23 56.98 24.04 57.19 23.91 57.19L22.62 57.19C22.49 57.19 22.3 56.98 22.3 56.66L22.3 56.29L23.26 55.32L24.23 56.29L24.23 56.66L24.23 56.66ZM15.36 48.43L21.84 54.01L18.98 56.87L14.16 50.25L15.36 48.43ZM2.94 60.1L2.94 58.28C2.94 55.99 4.35 53.28 7.06 52.51L12.57 51.36L18.08 58.93C18.24 59.16 18.5 59.3 18.78 59.32C18.81 59.33 18.83 59.33 18.86 59.33C19.11 59.33 19.36 59.23 19.54 59.04L20.67 57.91C20.72 58.01 20.78 58.1 20.84 58.19L20.27 61.06L4.17 61.06C3.5 61.06 2.94 60.62 2.94 60.1ZM43.59 60.1C43.59 60.62 43.03 61.06 42.36 61.06L26.26 61.06L25.69 58.19C25.75 58.1 25.8 58.01 25.86 57.91L26.99 59.04C27.17 59.23 27.42 59.33 27.67 59.33C27.7 59.33 27.72 59.33 27.75 59.32C28.03 59.3 28.29 59.16 28.45 58.93L33.96 51.36L39.47 52.51C42.18 53.28 43.59 55.99 43.59 58.28L43.59 60.1L43.59 60.1ZM45.56 1C35.95 1 28.12 8.82 28.12 18.44C28.12 28.05 35.95 35.88 45.56 35.88C55.18 35.88 63 28.05 63 18.44C63 8.82 55.18 1 45.56 1ZM45.56 33.94C37.01 33.94 30.06 26.98 30.06 18.44C30.06 9.89 37.01 2.94 45.56 2.94C54.11 2.94 61.06 9.89 61.06 18.44C61.06 26.98 54.11 33.94 45.56 33.94ZM56.21 10.59C56.21 10.58 56.21 10.56 56.21 10.55C56.2 10.53 56.2 10.52 56.2 10.5C56.2 10.48 56.19 10.47 56.19 10.45C56.18 10.44 56.18 10.42 56.18 10.41C56.17 10.39 56.17 10.38 56.16 10.36C56.16 10.35 56.15 10.33 56.14 10.32C56.14 10.3 56.13 10.29 56.12 10.27C56.12 10.26 56.11 10.25 56.1 10.23C56.1 10.22 56.09 10.2 56.08 10.19C56.07 10.18 56.06 10.16 56.05 10.15C56.04 10.13 56.03 10.12 56.02 10.11C56.02 10.1 56.01 10.08 56 10.07C55.96 10.02 55.91 9.98 55.86 9.94C55.85 9.93 55.84 9.92 55.83 9.91C55.82 9.9 55.8 9.89 55.79 9.88C55.77 9.87 55.76 9.86 55.75 9.86C55.73 9.85 55.72 9.84 55.71 9.83C55.69 9.83 55.68 9.82 55.66 9.81C55.65 9.81 55.63 9.8 55.62 9.79C55.61 9.79 55.59 9.78 55.58 9.78C55.56 9.77 55.55 9.76 55.53 9.76C55.52 9.76 55.5 9.75 55.49 9.75C55.47 9.75 55.45 9.74 55.44 9.74C55.42 9.73 55.4 9.73 55.39 9.73C55.37 9.73 55.36 9.72 55.34 9.72C55.31 9.72 55.28 9.72 55.25 9.72L49.44 9.72C48.9 9.72 48.47 10.15 48.47 10.69C48.47 11.22 48.9 11.66 49.44 11.66L52.91 11.66L45.56 19.01L43.34 16.78C42.96 16.41 42.35 16.41 41.97 16.78L34.22 24.53C33.84 24.91 33.84 25.53 34.22 25.9C34.41 26.09 34.66 26.19 34.91 26.19C35.15 26.19 35.4 26.09 35.59 25.9L42.66 18.84L44.88 21.06C45.02 21.2 45.19 21.29 45.38 21.33C45.44 21.34 45.5 21.34 45.56 21.34C45.62 21.34 45.69 21.34 45.75 21.33C45.93 21.29 46.1 21.2 46.25 21.06L46.25 21.06L54.28 13.03L54.28 16.5C54.28 17.04 54.71 17.47 55.25 17.47C55.78 17.47 56.22 17.04 56.22 16.5L56.22 10.69C56.22 10.66 56.22 10.62 56.21 10.59Z" />
</svg>