<svg xmlns="http://www.w3.org/2000/svg" viewBox="0 0 34 34" width="34" height="34">
	<style>
		tspan { white-space:pre }
		.shp0 { fill: #000000 } 
	</style>
	<g id="Страница учебной программы">
		<g id="Страница учебной программы">
			<g id="2 копия">
				<path id="Forma 1" class="shp0" d="M18.28 8.76C17.11 8.38 15.75 8.76 14.78 9.54C13.81 10.32 13.23 11.48 13.23 12.84C13.23 13.42 13.62 13.81 14.2 13.81C14.78 13.81 15.17 13.42 15.17 12.84C15.17 12.26 15.36 11.48 15.95 11.09C16.53 10.71 17.11 10.51 17.89 10.71C18.86 10.9 19.44 11.68 19.63 12.45C19.83 13.42 19.63 14.2 18.86 14.78C17.31 15.95 16.53 17.69 16.53 19.44C16.53 20.02 16.92 20.41 17.5 20.41C18.08 20.41 18.47 20.02 18.28 19.44C18.28 18.28 19.05 17.11 20.02 16.33C21.38 15.17 21.96 13.62 21.58 12.06C21.19 10.32 19.83 9.15 18.28 8.76ZM16.72 24.49C16.53 24.68 16.53 25.07 16.53 25.26C16.53 25.46 16.53 25.65 16.72 25.85C16.92 26.04 17.3 26.23 17.5 26.23C17.69 26.23 18.08 26.04 18.08 25.85C18.28 25.85 18.47 25.46 18.47 25.26C18.47 24.88 18.28 24.68 18.08 24.49C17.69 24.1 17.11 24.1 16.72 24.49ZM17.5 1C8.38 1 1 8.38 1 17.5C1 26.62 8.38 34 17.5 34C26.62 34 34 26.62 34 17.5C34 8.38 26.62 1 17.5 1ZM17.5 32.06C9.54 32.06 2.94 25.46 2.94 17.5C2.94 9.54 9.54 2.94 17.5 2.94C25.46 2.94 32.06 9.54 32.06 17.5C32.06 25.46 25.46 32.06 17.5 32.06Z" />
			</g>
		</g>
	</g>
</svg>